Designator Footprint               Mid X         Mid Y         Ref X         Ref Y         Pad X         Pad Y TB      Rotation Comment        

R51        RESC1608X06N_(0603)       3770mil    612.107mil       3770mil    612.107mil       3770mil    643.603mil  T        270.00 R_TBD          
R50        RESC1608X06N_(0603)   3612.165mil    569.504mil   3612.165mil    569.504mil   3612.165mil        601mil  T        270.00 R_TBD          
C117       CAPC1608X08N_(0603)       3770mil        735mil       3770mil        735mil       3770mil    766.496mil  T        270.00 C_TBD          
C116       CAPC1608X08N_(0603)   3612.165mil    691.349mil   3612.165mil    691.349mil   3612.165mil    659.853mil  T         90.00 C_TBD          
A4         U.FL-R-SMT-1          3790mil    439.528mil       3790mil        410mil       3790mil    469.055mil  T        180.00 U.FL-R-SMT(01) 
J10        TP                    4575mil        155mil       4575mil        155mil       4575mil        155mil  T         90.00 5004           
J9         TP                4294.201mil       2025mil   4294.201mil       2025mil   4294.201mil       2025mil  T        360.00 5004           
J8         TP                    3935mil   1415.591mil       3935mil   1415.591mil       3935mil   1415.591mil  T         90.00 5004           
J7         TP                    1700mil       1195mil       1700mil       1195mil       1700mil       1195mil  T          0.00 5004           
J6         TP                    1620mil       1075mil       1620mil       1075mil       1620mil       1075mil  T          0.00 5004           
J5         TP                    1250mil       1075mil       1250mil       1075mil       1250mil       1075mil  T          0.00 5004           
J4         TP                    1620mil        960mil       1620mil        960mil       1620mil        960mil  T          0.00 5004           
J3         TP                    4675mil       1175mil       4675mil       1175mil       4675mil       1175mil  T        360.00 5004           
J2         TP                4345.507mil        670mil   4345.507mil        670mil   4345.507mil        670mil  T        180.00 5004           
U17        QFN50P300X300X100_HS-17N       1045mil       1205mil       1045mil       1205mil   1102.087mil   1175.473mil  T        180.00 TPS62131RGTR   
U18        SOT95P280X145-5N    4445.24mil    568.217mil    4445.24mil    568.217mil   4397.996mil    605.618mil  T        360.00 FAN2500S30X    
R46        RESC1608X06N_(0603)       2925mil    631.496mil       2925mil    631.496mil   2956.496mil    631.496mil  T        180.00 R_TBD          
R45        RESC1608X06N_(0603)   2893.831mil        725mil   2893.831mil        725mil   2893.831mil    693.504mil  T         90.00 R_TBD          
R44        RESC1608X06N_(0603)   4247.355mil    537.835mil   4247.355mil    537.835mil   4215.859mil    537.835mil  T        360.00 MCR03ERTF1002  
P14        HDR1X7                3685mil    124.863mil       3385mil    124.863mil       3385mil    124.863mil  T        360.00 Header 7       
P7         HDR1X3                1110mil        750mil       1010mil        750mil       1010mil        750mil  T        360.00 Header 3       
P6         HDR1X3                1225mil        475mil       1225mil        575mil       1225mil        575mil  T        270.00 Header 3       
L16        INDC1608X08N          1400mil       1195mil       1400mil       1195mil   1366.732mil       1195mil  T        360.00 LQP03TNR10J02D 
L15        INDC3225X22N          1245mil       1195mil       1245mil       1195mil       1195mil       1195mil  T          0.00 LQH32CN2R2M33L 
FB8        RESC1608X06N_(0603)   4247.355mil    599.331mil   4247.355mil    599.331mil   4215.859mil    599.331mil  T        360.00 BLM18BD221SN1D 
FB3        RESC1608X06N_(0603)       1525mil       1195mil       1525mil       1195mil   1493.504mil       1195mil  T        360.00 MMZ1608R300A   
FB2        RESC1608X06N_(0603)       1400mil       1075mil       1400mil       1075mil   1368.504mil       1075mil  T        360.00 MMZ1608R300A   
FB1        RESC1608X06N_(0603)       1525mil        960mil       1525mil        960mil   1556.496mil        960mil  T        180.00 MMZ1608R300A   
C115       CAPC1608X08N_(0603)   2893.831mil    539.958mil   2893.831mil    539.958mil   2893.831mil    508.462mil  T         90.00 C_TBD          
C92        CAPC1608X08N_(0603)   2893.504mil        850mil   2893.504mil        850mil   2893.504mil    881.496mil  T        270.00 C_TBD          
C91        CAPC1608X08N_(0603)   4077.705mil       1965mil   4077.705mil       1965mil   4046.209mil       1965mil  T        360.00 C_TBD          
C90        CAPC1608X08N_(0603)       4075mil    1477.52mil       4075mil    1477.52mil   4043.504mil    1477.52mil  T        360.00 C_TBD          
C114       CAPC1608X08N_(0603)   4586.774mil    530.815mil   4586.774mil    530.815mil    4618.27mil    530.815mil  T        180.00 GRM1885C1H102JA01D
C113       CAPC1608X08N_(0603)   4586.774mil    605.619mil   4586.774mil    605.619mil    4618.27mil    605.619mil  T        180.00 GRM188R61A105KA61D
C95        CAPC1608X08N_(0603)   4337.355mil    567.835mil   4337.355mil    567.835mil   4337.355mil    536.339mil  T         90.00 GRM188R60J225KE19D
C94        CAPC1608X08N_(0603)   4157.355mil    567.835mil   4157.355mil    567.835mil   4157.355mil    536.339mil  T         90.00 GRM188R61A105KA61D
C93        CAPC1608X08N_(0603)   4102.355mil    567.835mil   4102.355mil    567.835mil   4102.355mil    536.338mil  T         90.00 GRM188C81C106MA73D
C30        CAPC1608X08N_(0603)       1050mil       1085mil       1050mil       1085mil   1081.496mil       1085mil  T        180.00 GRM188C80G226MEA0D
C29        CAPC1608X08N_(0603)        875mil       1235mil        875mil       1235mil    843.504mil       1235mil  T        360.00 GRM188R61A394KA61D
C28        CAPC1608X08N_(0603)        875mil       1180mil        875mil       1180mil    843.504mil       1180mil  T        360.00 GRM188C81C106MA73D
C3         CAPC1608X08N_(0603)   1433.268mil    869.666mil   1433.268mil    869.666mil   1433.268mil     838.17mil  T         90.00 GRM188R71C334KA01D
C2         CAPC1608X08N_(0603)       1260mil        865mil       1260mil        865mil   1228.504mil        865mil  T        360.00 GRM188C81C106MA73D
C1         CAPC1608X08N_(0603)        960mil        945mil        960mil        945mil        960mil    913.504mil  T         90.00 GRM188R60J475KE19D
R43        RESC1608X06N_(0603)       1070mil       1335mil       1070mil       1335mil   1101.496mil       1335mil  T        180.00 MCR03ERTJ104   
C68        CAPC1608X08N_(0603)   3697.882mil    924.666mil   3697.882mil    924.666mil   3729.378mil    924.666mil  T        180.00 GRM188R71C103KA01D
R42        RESC1608X06N_(0603)       1740mil   1843.083mil       1740mil   1843.083mil   1708.504mil   1843.083mil  T        360.00 R_DNP          
R41        RESC1608X06N_(0603)       1740mil   1783.083mil       1740mil   1783.083mil   1708.504mil   1783.083mil  T          0.00 R_DNP          
R36        RESC1608X06N_(0603)   2645.236mil       1230mil   2645.236mil       1230mil   2645.236mil   1261.496mil  T        270.00 MCR03EZPJ000   
R37        RESC1608X06N_(0603)   2584.516mil       1230mil   2584.516mil       1230mil   2584.516mil   1261.496mil  T        270.00 MCR03EZPJ000   
R38        RESC1608X06N_(0603)   2523.701mil       1230mil   2523.701mil       1230mil   2523.701mil   1261.496mil  T        270.00 MCR03EZPJ000   
R22        RESC1608X06N_(0603)       1740mil   1633.425mil       1740mil   1633.425mil   1771.496mil   1633.425mil  T        180.00 MCR03ERTF1002  
R19        RESC1608X06N_(0603)       1740mil   1692.953mil       1740mil   1692.953mil   1708.504mil   1692.953mil  T        360.00 MCR03ERTJ472   
X3         5.0X3.2X1.1MMXTAL   1687.644mil    1411.87mil   1657.022mil   1300.515mil   1665.373mil   1347.841mil  T         45.00 ABM3B-8.000MHZ-B2-T
X1         2.5X2.0X0.9MMXTAL   4489.785mil   1190.838mil   4488.057mil   1208.161mil     4516.6mil   1167.807mil  T         90.00 ASVTX-12-A-40.000MHZ-H10-T
U15        TSQFP50P1200X1200X160-64N       2130mil        855mil       2130mil        855mil   1905.591mil   1002.638mil  T        360.00 MK22FN512VLH12 
U14        SOT95P280X145-5N       1070mil        925mil       1070mil        925mil   1022.756mil    962.402mil  T        360.00 LM3671MF-1.8/NOPB
U12        SON50P100X50-6N       2550mil       1460mil       2550mil       1460mil   2568.307mil   1440.315mil  T        180.00 74LVCH1T45GM,132
U13        SON40P100X40-6N   1996.488mil   1502.857mil   1996.488mil   1502.857mil   1978.181mil   1518.605mil  T        360.00 NLX2G14BMX1TCG 
U11        SON50P100X50-6N       2545mil   1661.406mil       2545mil   1661.406mil   2563.307mil   1641.721mil  T        180.00 74LVCH1T45GM,132
U10        XQFN8             2068.831mil   1887.651mil   2068.831mil   1887.651mil   2098.359mil   1867.966mil  T        180.00 74LVC2T45GM,125
U9         SON50P100X50-6N       2540mil   1879.147mil       2540mil   1879.147mil   2558.307mil   1859.462mil  T        180.00 74LVCH1T45GM,132
U8         QFN50P500X500X100_HS-33N   1478.517mil       1680mil   1478.517mil       1680mil   1384.029mil   1748.898mil  T        360.00 MK20DX128VFM5  
U7         TSOP65P640X110-14N   5055.501mil   1090.417mil   5055.501mil   1090.417mil    5168.69mil   1013.645mil  T        180.00 MCP4922-E/ST   
U6         SC70              4080.791mil       1390mil   4080.791mil       1390mil   4114.256mil   1364.409mil  T        180.00 NC7SPU04P5X    
U5         SC70              4305.406mil   1175.691mil   4305.406mil   1175.691mil   4338.871mil   1150.101mil  T        180.00 NC7SPU04P5X    
U4         SOT95P280X145-5N   4445.511mil    789.857mil   4445.511mil    789.857mil   4398.267mil    827.259mil  T        360.00 FAN2500S30X    
U3         TSQFP50P1600X1600X120-100N       3435mil       1295mil       3435mil       1295mil    3198.78mil     991.85mil  T         90.00 AGL250V2-VQ100 
U2         S-PVQFN-N28       4843.474mil    379.501mil   4843.474mil    379.502mil   4751.939mil    438.557mil  T        360.00 CC2520RHDT     
U1         S-PVQFN-N32       4476.642mil   1800.197mil   4476.642mil   1800.197mil   4378.217mil   1869.094mil  T        360.00 CC1200RHBR     
SW1        EVQ-PE105K            2530mil    627.496mil       2530mil    627.496mil       2530mil    733.795mil  T        270.00 EVQ-PE105K     
R62        RESC1608X06N_(0603)       4075mil   1592.394mil       4075mil   1592.394mil   4106.496mil   1592.394mil  T        180.00 R_TBD          
R61        RESC1608X06N_(0603)       4075mil   1534.353mil       4075mil   1534.353mil   4043.504mil   1534.353mil  T        360.00 R_TBD          
R60        RESC1608X06N_(0603)   1673.541mil        340mil   1673.541mil        340mil   1673.541mil    308.504mil  T         90.00 MCR03ERTF1002  
R59        RESC1608X06N_(0603)       1625mil        805mil       1625mil        805mil       1625mil    773.504mil  T         90.00 R_DNP          
R58        RESC1608X06N_(0603)        974mil        435mil        974mil        435mil   1005.496mil        435mil  T        180.00 MCR03EZPFX27R0 
R57        RESC1608X06N_(0603)        974mil        494mil        974mil        494mil   1005.496mil        494mil  T        180.00 MCR03EZPFX27R0 
R40        RESC1608X06N_(0603)       3060mil    460.611mil       3060mil     460.61mil       3060mil    492.106mil  T        270.00 MCR03ERTJ331   
R39        RESC1608X06N_(0603)       3120mil    460.611mil       3120mil     460.61mil       3120mil    492.106mil  T        270.00 MCR03ERTJ331   
R33        RESC1608X06N_(0603)   2394.496mil    300.843mil   2394.496mil    300.843mil   2425.992mil    300.843mil  T        180.00 MCR03ERTJ331   
R35        RESC1608X06N_(0603)   2394.496mil    360.347mil   2394.496mil    360.347mil   2425.992mil    360.347mil  T        180.00 MCR03ERTJ331   
R34        RESC1608X06N_(0603)   2052.959mil    360.105mil   2052.959mil    360.105mil   2021.463mil    360.105mil  T        360.00 MCR03ERTJ331   
R32        RESC1608X06N_(0603)   2070.504mil   1439.353mil   2070.504mil   1439.353mil   2039.008mil   1439.353mil  T        360.00 MCR03ERTF1002  
R31        RESC1608X06N_(0603)   1945.504mil   1439.353mil   1945.504mil   1439.353mil   1914.008mil   1439.353mil  T        360.00 MCR03EZPJ000   
R30        RESC1608X06N_(0603)   1945.504mil   1566.361mil   1945.504mil   1566.361mil   1914.008mil   1566.361mil  T        360.00 MCR03EZPJ000   
R29        RESC1608X06N_(0603)   1194.241mil   1431.779mil   1194.241mil   1431.779mil   1194.241mil   1463.275mil  T        270.00 MCR03ERTF1002  
R28        RESC1608X06N_(0603)   2070.504mil   1566.361mil   2070.504mil   1566.361mil       2102mil   1566.361mil  T        180.00 MCR03ERTF1002  
R27        RESC1608X06N_(0603)       2360mil       1400mil       2360mil       1400mil   2328.504mil       1400mil  T        360.00 MCR03ERTF1002  
R26        RESC1608X06N_(0603)       2360mil       1460mil       2360mil       1460mil   2328.504mil       1460mil  T        360.00 MCR03EZPJ000   
R25        RESC1608X06N_(0603)       2360mil       1520mil       2360mil       1520mil   2391.496mil       1520mil  T        180.00 MCR03ERTJ472   
R24        RESC1608X06N_(0603)   1403.832mil   1892.069mil   1403.832mil   1892.069mil   1435.328mil   1892.069mil  T        180.00 MCR03ERTJ331   
R23        RESC1608X06N_(0603)       2360mil   1581.406mil       2360mil   1581.406mil   2328.504mil   1581.406mil  T        360.00 MCR03ERTF1002  
R21        RESC1608X06N_(0603)       2360mil   1641.406mil       2360mil   1641.406mil   2328.504mil   1641.406mil  T        360.00 MCR03EZPJ000   
R20        RESC1608X06N_(0603)       2360mil   1701.406mil       2360mil   1701.406mil   2391.496mil   1701.406mil  T        180.00 MCR03ERTJ472   
R18        RESC1608X06N_(0603)       2175mil       1765mil       2175mil       1765mil       2175mil   1733.504mil  T         90.00 MCR03ERTJ102   
R17        RESC1608X06N_(0603)       2345mil   1910.562mil       2345mil   1910.562mil   2313.504mil   1910.562mil  T        360.00 MCR03ERTJ102   
R16        RESC1608X06N_(0603)       2345mil   1850.562mil       2345mil   1850.562mil   2313.504mil   1850.562mil  T        360.00 MCR03ERTF1002  
R15        RESC1608X06N_(0603)       2345mil   1790.562mil       2345mil   1790.562mil   2376.496mil   1790.562mil  T        180.00 MCR03ERTJ472   
R14        RESC1608X06N_(0603)        975mil   1723.874mil        975mil   1723.874mil   1006.496mil   1723.874mil  T        180.00 MCR03EZPFX27R0 
R13        RESC1608X06N_(0603)        975mil   1782.523mil        975mil   1782.523mil   1006.496mil   1782.523mil  T        180.00 MCR03EZPFX27R0 
R12        RESC1608X06N_(0603)   2428.819mil    536.813mil   2428.819mil    536.813mil   2428.819mil    568.309mil  T        270.00 MCR03ERTJ184   
R11        RESC1608X06N_(0603)   4823.075mil       1170mil   4823.075mil       1170mil   4854.571mil       1170mil  T        180.00 RC0603FR-07100KL
R10        RESC1608X06N_(0603)   4822.773mil    969.842mil   4822.773mil    969.842mil   4854.269mil    969.842mil  T        180.00 CRCW06031K00FKEA
R9         RESC1608X06N_(0603)   4568.057mil   1082.484mil   4568.057mil   1082.484mil   4568.057mil   1050.988mil  T         90.00 RC0603FR-07100KL
R8         RESC1608X06N_(0603)   4203.745mil   1175.691mil   4203.745mil   1175.691mil   4203.745mil   1144.195mil  T         90.00 RC0603FR-071ML 
R7         RESC1608X06N_(0603)   4247.074mil    760.015mil   4247.074mil    760.015mil   4215.578mil    760.015mil  T        360.00 MCR03ERTF1002  
R6         RESC1608X06N_(0603)   3488.755mil   1917.178mil   3488.755mil   1917.178mil   3488.755mil   1885.682mil  T         90.00 CRCW06031K00FKEA
R5         RESC1608X06N_(0603)       3935mil       2025mil       3935mil       2025mil   3966.496mil       2025mil  T        180.00 CRCW06031K00FKEA
R4         RESC1608X06N_(0603)       4937mil        626mil       4937mil        626mil       4937mil    594.504mil  T         90.00 KTR03EZPF5602  
R3         RESC1608X06N_(0603)   4614.797mil   1480.794mil   4614.797mil   1480.794mil   4614.797mil   1449.298mil  T         90.00 MCR03ERTJ220   
R2         RESC1608X06N_(0603)   4462.538mil   1536.197mil   4462.538mil   1536.197mil   4462.538mil   1504.701mil  T         90.00 KTR03EZPF5602  
R1         RESC1608X06N_(0603)   4359.787mil   2051.197mil   4359.787mil   2051.197mil   4359.787mil   2082.693mil  T        270.00 MCR03EZPJ000   
P12        M50                   1845mil    412.407mil       1845mil    412.407mil       1745mil    387.407mil  T        360.00 M50-3500542    
P11        MICROUSB           812.342mil    451.181mil    759.685mil    451.181mil        865mil    502.362mil  T        270.00 1981568-1      
P5         HDR2X4                1475mil        500mil       1425mil        650mil       1425mil        650mil  T        270.00 Header 4X2     
P4         HDR2X7            2131.496mil   1263.866mil   1831.496mil   1213.866mil   1831.496mil   1213.866mil  T        360.00 Header 7X2     
P3         M50               1351.847mil   1431.779mil   1351.847mil   1431.779mil   1251.847mil   1406.779mil  T        360.00 M50-3500542    
P2         MICROUSB           813.957mil   1740.433mil    761.299mil   1740.433mil    866.614mil   1791.614mil  T        270.00 1981568-1      
P1         HDR2X6H           3575.287mil       2075mil   3825.287mil       2125mil   3825.287mil       2125mil  T        180.00 Header 6X2H    
L12        INDC1608X08N          1400mil        960mil       1400mil        960mil   1366.732mil        960mil  T        360.00 LQP03TNR10J02D 
L11        INDC3225X22N          1245mil        960mil       1245mil        960mil       1195mil        960mil  T        360.00 LQH32CN2R2M33L 
L10        INDC1608X08N      4437.229mil   1090.108mil   4437.229mil   1090.108mil   4403.962mil   1090.108mil  T        360.00 LQM18FN100M00D 
L9         INDC1608X08N      5108.592mil    540.573mil   5108.592mil    540.573mil   5108.592mil    507.305mil  T         90.00 L-14C2N2SV4T   
L8         INDC1608X08N      4616.819mil    1603.12mil   4616.819mil    1603.12mil   4616.819mil   1569.853mil  T         90.00 LQM18NNR22K00D 
L7         INDC1608X08N          5130mil   1589.202mil       5130mil   1589.202mil   5096.732mil   1589.202mil  T        360.00 LQG18HN68NJ00D 
L6         INDC1608X08N          4950mil   1591.496mil       4950mil   1591.496mil   4916.732mil   1591.496mil  T        360.00 LQG18HNR10J00D 
L5         INDC1608X08N      4767.369mil   1592.385mil   4767.369mil   1592.385mil   4734.102mil   1592.385mil  T        360.00 LQG18HN18NJ00D 
L4         INDC1608X08N      4763.921mil   1696.197mil   4763.921mil   1696.197mil   4730.654mil   1696.197mil  T        360.00 LQG18HN82NJ00D 
L3         INDC1608X08N      4855.134mil   1747.165mil   4855.134mil   1747.165mil   4855.134mil   1713.898mil  T         90.00 LQG18HN39NJ00D 
L2         INDC1608X08N      4673.425mil   1781.126mil   4673.425mil   1781.126mil   4673.425mil   1747.858mil  T         90.00 LQM18NNR15K00D 
L1         INDC1608X08N      4763.921mil   1810.197mil   4763.921mil   1810.197mil   4730.654mil   1810.197mil  T        360.00 LQG18HN82NJ00D 
FB13       RESC1608X06N_(0603)        980mil        650mil        980mil        650mil    948.504mil        650mil  T        360.00 MMZ1608R300A   
FB11       RESC1608X06N_(0603)    974.927mil   1908.666mil    974.927mil   1908.666mil    943.431mil   1908.666mil  T        360.00 MMZ1608R300A   
FB8        RESC1608X06N_(0603)   4247.074mil    820.015mil   4247.074mil    820.015mil   4215.578mil    820.015mil  T        360.00 BLM18BD221SN1D 
D5         CHIPLED0603           3060mil    580.611mil       3060mil     580.61mil       3060mil    549.114mil  T         90.00 LG Q971-KN-1   
D4         CHIPLED0603           3120mil    580.611mil       3120mil    580.611mil       3120mil    549.114mil  T         90.00 LG Q971-KN-1   
D2         CREE_LV1          2229.496mil    330.843mil   2229.496mil    330.843mil   2170.441mil     360.37mil  T        360.00 CLV1A-FKB-CJ1M1F1BB7R4S3
D1         CHIPLED0603       1403.451mil   1832.069mil   1403.451mil   1832.069mil   1371.955mil   1832.069mil  T        360.00 LG Q971-KN-1   
C144       CAPC1608X08N_(0603)   3984.406mil       1510mil   3984.406mil       1510mil   3984.406mil   1478.504mil  T         90.00 C_TBD          
C143       CAPC1608X08N_(0603)   2288.831mil        565mil   2288.831mil        565mil   2320.328mil        565mil  T        180.00 GRM188C81C106MA73D
C142       CAPC1608X08N_(0603)   2288.831mil        510mil   2288.831mil        510mil   2320.328mil        510mil  T        180.00 GRM188R61A105KA61D
C141       CAPC1608X08N_(0603)       1770mil        310mil       1770mil        310mil   1801.496mil        310mil  T        180.00 GRM188R71C104KA01D
C140       CAPC1608X08N_(0603)   2288.831mil        455mil   2288.831mil        455mil   2320.328mil        455mil  T        180.00 GRM188R71C104KA01D
C139       CAPC1608X08N_(0603)       1930mil        565mil       1930mil        565mil   1898.504mil        565mil  T        360.00 GRM188R71C104KA01D
C138       CAPC1608X08N_(0603)       1840mil        600mil       1840mil        600mil       1840mil    568.504mil  T         90.00 GRM188R71C104KA01D
C137       CAPC1608X08N_(0603)       1785mil        600mil       1785mil        600mil       1785mil    568.504mil  T         90.00 GRM188R71C104KA01D
C136       CAPC1608X08N_(0603)       1685mil    805.706mil       1685mil    805.706mil       1685mil     774.21mil  T         90.00 GRM188R60J225KE19D
C135       CAPC1608X08N_(0603)       1805mil       1020mil       1805mil       1020mil   1773.504mil       1020mil  T        360.00 GRM188R71C104KA01D
C134       CAPC1608X08N_(0603)       1805mil       1075mil       1805mil       1075mil   1773.504mil       1075mil  T        360.00 GRM188R61A105KA61D
C133       CAPC1608X08N_(0603)       1805mil       1130mil       1805mil       1130mil   1773.504mil       1130mil  T        360.00 GRM188C81C106MA73D
C132       CAPC1608X08N_(0603)   2531.693mil   1026.381mil   2531.693mil   1026.381mil   2531.693mil   1057.877mil  T        270.00 GRM188R71C104KA01D
C131       CAPC1608X08N_(0603)   2475.524mil   1026.381mil   2475.524mil   1026.381mil   2475.524mil   1057.877mil  T        270.00 GRM188R61A105KA61D
C130       CAPC1608X08N_(0603)       2420mil   1026.381mil       2420mil   1026.381mil       2420mil   1057.877mil  T        270.00 GRM188C81C106MA73D
C129       CAPC1608X08N_(0603)   1062.604mil     403.86mil   1062.604mil     403.86mil   1062.604mil    372.364mil  T         90.00 GRM1885C1H100JA01D
C128       CAPC1608X08N_(0603)   1062.604mil    525.317mil   1062.604mil    525.317mil   1062.604mil    556.813mil  T        270.00 GRM1885C1H100JA01D
C112       CAPC1608X08N_(0603)    1200.25mil   1569.737mil    1200.25mil   1569.737mil   1168.754mil   1569.737mil  T        360.00 GRM188R71C104KA01D
C111       CAPC1608X08N_(0603)       2225mil   1502.857mil       2225mil   1502.857mil       2225mil   1534.353mil  T        270.00 GRM188R71C104KA01D
C110       CAPC1608X08N_(0603)       2555mil       1390mil       2555mil       1390mil   2523.504mil       1390mil  T        360.00 GRM188R71C104KA01D
C109       CAPC1608X08N_(0603)       2680mil   1463.275mil       2680mil   1463.275mil       2680mil   1431.779mil  T         90.00 GRM188R71C104KA01D
C108       CAPC1608X08N_(0603)       2555mil   1590.523mil       2555mil   1590.523mil   2523.504mil   1590.523mil  T        360.00 GRM188R71C104KA01D
C107       CAPC1608X08N_(0603)       2680mil       1665mil       2680mil       1665mil       2680mil   1633.504mil  T         90.00 GRM188R71C104KA01D
C106       CAPC1608X08N_(0603)    1200.25mil   1628.241mil    1200.25mil   1628.241mil   1168.754mil   1628.241mil  T        360.00 GRM188R60J225KE19D
C105       CAPC1608X08N_(0603)   2068.831mil   1767.651mil   2068.831mil   1767.651mil   2068.831mil   1799.147mil  T        270.00 GRM188R71C104KA01D
C104       CAPC1608X08N_(0603)   1973.832mil   1817.651mil   1973.832mil   1817.651mil   1973.832mil   1849.147mil  T        270.00 GRM188R71C104KA01D
C103       CAPC1608X08N_(0603)   1313.517mil   1785.315mil   1313.517mil   1785.315mil   1313.517mil   1816.811mil  T        270.00 GRM188R71C104KA01D
C102       CAPC1608X08N_(0603)   1258.517mil   1785.315mil   1258.517mil   1785.315mil   1258.517mil   1816.811mil  T        270.00 GRM188R61A105KA61D
C101       CAPC1608X08N_(0603)   1203.517mil   1785.315mil   1203.517mil   1785.315mil   1203.517mil   1816.811mil  T        270.00 GRM188C81C106MA73D
C100       CAPC1608X08N_(0603)       2545mil   1809.147mil       2545mil   1809.147mil   2513.504mil   1809.147mil  T        360.00 GRM188R71C104KA01D
C99        CAPC1608X08N_(0603)   2666.131mil       1875mil   2666.131mil       1875mil   2666.131mil   1843.504mil  T         90.00 GRM188R71C104KA01D
C98        CAPC1608X08N_(0603)   1063.358mil   1692.378mil   1063.358mil   1692.378mil   1063.358mil   1660.882mil  T         90.00 GRM1885C1H100JA01D
C97        CAPC1608X08N_(0603)   1063.358mil   1814.019mil   1063.358mil   1814.019mil   1063.358mil   1845.515mil  T        270.00 GRM1885C1H100JA01D
C96        CAPC1608X08N_(0603)   2428.819mil        660mil   2428.819mil        660mil   2428.819mil    691.496mil  T        270.00 GRM1885C1H102JA01D
C89        CAPC1608X08N_(0603)       1795mil   1540.992mil       1795mil   1540.992mil   1817.271mil   1518.721mil  T        135.00 GQM1885C1H220JB01D
C88        CAPC1608X08N_(0603)       1580mil   1334.352mil       1580mil   1334.352mil   1557.729mil   1356.623mil  T        315.00 GQM1885C1H220JB01D
C86        CAPC1608X08N_(0603)   4822.909mil    1058.11mil   4822.909mil    1058.11mil   4791.413mil    1058.11mil  T        360.00 GRM188R71C104KA01D
C85        CAPC1608X08N_(0603)   4822.909mil    1113.11mil   4822.909mil    1113.11mil   4791.413mil    1113.11mil  T        360.00 GRM188R71C103KA01D
C84        CAPC1608X08N_(0603)   5114.158mil     953.53mil   5114.158mil     953.53mil   5145.654mil     953.53mil  T        180.00 GRM188R71C104KA01D
C83        CAPC1608X08N_(0603)   5114.158mil     898.53mil   5114.158mil     898.53mil   5145.654mil     898.53mil  T        180.00 GRM188R61A105KA61D
C82        CAPC1608X08N_(0603)       1400mil       1135mil       1400mil       1135mil   1368.504mil       1135mil  T        360.00 GRM188F51C474ZA01D
C80        CAPC1608X08N_(0603)   4568.057mil   1208.161mil   4568.057mil   1208.161mil   4568.057mil   1239.657mil  T        270.00 GRM1885C1H102JA01D
C79        CAPC1608X08N_(0603)   4406.128mil   1208.161mil   4406.128mil   1208.161mil   4406.128mil   1239.657mil  T        270.00 GRM1885C1H102JA01D
C78        CAPC1608X08N_(0603)   4110.791mil   1305.707mil   4110.791mil   1305.707mil   4142.287mil   1305.707mil  T        180.00 GRM188R71C104KA01D
C77        CAPC1608X08N_(0603)   4345.507mil   1060.469mil   4345.507mil   1060.469mil   4345.507mil   1028.973mil  T         90.00 GRM188R71C104KA01D
C76        CAPC1608X08N_(0603)   4290.507mil   1060.469mil   4290.507mil   1060.469mil   4290.507mil   1028.973mil  T         90.00 GRM188R61A105KA61D
C75        CAPC1608X08N_(0603)   4585.335mil    752.456mil   4585.335mil    752.456mil   4616.831mil    752.456mil  T        180.00 GRM1885C1H102JA01D
C74        CAPC1608X08N_(0603)   4437.229mil   1030.594mil   4437.229mil   1030.594mil   4468.725mil   1030.594mil  T        180.00 GRM188R71C104KA01D
C73        CAPC1608X08N_(0603)   4585.511mil    827.259mil   4585.511mil    827.259mil   4617.007mil    827.259mil  T        180.00 GRM188R61A105KA61D
C72        CAPC1608X08N_(0603)   4337.074mil    790.015mil   4337.074mil    790.015mil   4337.074mil    758.519mil  T         90.00 GRM188R60J225KE19D
C71        CAPC1608X08N_(0603)   4155.511mil    789.857mil   4155.511mil    789.857mil   4155.511mil    758.361mil  T         90.00 GRM188R61A105KA61D
C70        CAPC1608X08N_(0603)   4099.712mil    789.857mil   4099.712mil    789.857mil   4099.712mil    758.361mil  T         90.00 GRM188C81C106MA73D
C69        CAPC1608X08N_(0603)       3555mil        620mil       3555mil        620mil       3555mil    588.504mil  T         90.00 GRM188R71C103KA01D
C67        CAPC1608X08N_(0603)       3965mil       1180mil       3965mil       1180mil   3942.729mil   1157.729mil  T         45.00 GRM188R71C103KA01D
C66        CAPC1608X08N_(0603)    3859.46mil   1576.406mil    3859.46mil   1576.406mil    3859.46mil   1607.902mil  T        270.00 GRM188R71C103KA01D
C65        CAPC1608X08N_(0603)    3429.46mil   1852.259mil    3429.46mil   1852.259mil    3429.46mil   1883.755mil  T        270.00 GRM188R71C103KA01D
C64        CAPC1608X08N_(0603)   3111.181mil   1747.591mil   3111.181mil   1747.591mil   3079.685mil   1747.591mil  T        360.00 GRM188R71C103KA01D
C63        CAPC1608X08N_(0603)    3001.41mil   1261.397mil    3001.41mil   1261.397mil   2969.914mil   1261.397mil  T        360.00 GRM188R71C103KA01D
C62        CAPC1608X08N_(0603)   3030.126mil        870mil   3030.126mil        870mil    2998.63mil        870mil  T        360.00 GRM188R71C103KA01D
C61        CAPC1608X08N_(0603)       3500mil        620mil       3500mil        620mil       3500mil    588.504mil  T         90.00 GRM188R71C104KA01D
C60        CAPC1608X08N_(0603)   3697.882mil    869.666mil   3697.882mil    869.666mil   3729.378mil    869.666mil  T        180.00 GRM188R71C104KA01D
C59        CAPC1608X08N_(0603)       3905mil       1235mil       3905mil       1235mil   3882.729mil   1212.729mil  T         45.00 GRM188R71C104KA01D
C58        CAPC1608X08N_(0603)    3804.46mil   1576.406mil    3804.46mil   1576.406mil    3804.46mil   1607.902mil  T        270.00 GRM188R71C104KA01D
C57        CAPC1608X08N_(0603)    3374.46mil   1852.259mil    3374.46mil   1852.259mil    3374.46mil   1883.755mil  T        270.00 GRM188R71C104KA01D
C56        CAPC1608X08N_(0603)   3111.181mil   1692.591mil   3111.181mil   1692.591mil   3079.685mil   1692.591mil  T        360.00 GRM188R71C104KA01D
C55        CAPC1608X08N_(0603)    3001.41mil   1316.397mil    3001.41mil   1316.397mil   2969.914mil   1316.397mil  T        360.00 GRM188R71C104KA01D
C54        CAPC1608X08N_(0603)       3090mil        945mil       3090mil        945mil   3112.271mil    922.729mil  T        135.00 GRM188R71C104KA01D
C53        CAPC1608X08N_(0603)       3865mil       1275mil       3865mil       1275mil   3842.729mil   1252.729mil  T         45.00 GRM188C81C106MA73D
C51        CAPC1608X08N_(0603)       3390mil        620mil       3390mil        620mil       3390mil    588.504mil  T         90.00 GRM188R71C103KA01D
C50        CAPC1608X08N_(0603)    4058.52mil   1019.587mil    4058.52mil   1019.587mil   4080.791mil   1041.859mil  T        225.00 GRM188R71C103KA01D
C49        CAPC1608X08N_(0603)    3264.46mil   1852.259mil    3264.46mil   1852.259mil    3264.46mil   1883.755mil  T        270.00 GRM188R71C103KA01D
C48        CAPC1608X08N_(0603)   2903.261mil   1144.925mil   2903.261mil   1144.925mil   2871.765mil   1144.925mil  T        360.00 GRM188R71C103KA01D
C47        CAPC1608X08N_(0603)   3403.386mil    858.976mil   3403.386mil    858.976mil    3371.89mil    858.976mil  T        360.00 GRM188R71C104KA01D
C46        CAPC1608X08N_(0603)       3445mil        620mil       3445mil        620mil       3445mil    588.504mil  T         90.00 GRM188R71C104KA01D
C45        CAPC1608X08N_(0603)   4019.629mil   1058.478mil   4019.629mil   1058.478mil     4041.9mil   1080.749mil  T        225.00 GRM188R71C104KA01D
C44        CAPC1608X08N_(0603)   3319.461mil   1852.259mil    3319.46mil   1852.259mil   3319.461mil   1883.755mil  T        270.00 GRM188R71C104KA01D
C43        CAPC1608X08N_(0603)   2939.425mil       1200mil   2939.425mil       1200mil   2907.929mil       1200mil  T        360.00 GRM188R71C104KA01D
C42        CAPC1608X08N_(0603)       3015mil       1600mil       3015mil       1600mil   2983.504mil       1600mil  T        360.00 GRM188C81C106MA73D
C41        CAPC1608X08N_(0603)       3695mil       1700mil       3695mil       1700mil       3695mil   1731.496mil  T        270.00 GRM188R71C104KA01D
C40        CAPC1608X08N_(0603)       3750mil       1700mil       3750mil       1700mil       3750mil   1731.496mil  T        270.00 GRM188R71C103KA01D
C39        CAPC1608X08N_(0603)       3640mil       1700mil       3640mil       1700mil       3640mil   1731.496mil  T        270.00 GRM188R71C104KA01D
C38        CAPC1608X08N_(0603)   4936.002mil    134.998mil   4936.002mil    134.998mil   4936.002mil    103.501mil  T         90.00 GRM188R71C104KA01D
C37        CAPC1608X08N_(0603)   4846.002mil    134.998mil   4846.002mil    134.998mil   4846.002mil    103.501mil  T         90.00 GRM188R71C104KA01D
C36        CAPC1608X08N_(0603)       4715mil    227.461mil       4715mil    227.461mil   4683.504mil    227.461mil  T        360.00 GRM188R71C104KA01D
C35        CAPC1608X08N_(0603)   4994.002mil    254.501mil   4994.002mil    254.502mil   4994.002mil    223.006mil  T         90.00 GRM188R71C104KA01D
C34        CAPC1608X08N_(0603)   4994.002mil    504.502mil   4994.002mil    504.502mil   4994.002mil    535.998mil  T        270.00 GRM188R71C104KA01D
C33        CAPC1608X08N_(0603)       4994mil        626mil       4994mil        626mil       4994mil    594.504mil  T         90.00 GRM188R71C104KA01D
C32        CAPC1608X08N_(0603)       4880mil        626mil       4880mil        626mil       4880mil    594.504mil  T         90.00 GRM188R71C104KA01D
C31        CAPC1608X08N_(0603)       4760mil        626mil       4760mil        626mil       4760mil    594.504mil  T         90.00 GRM188R71C104KA01D
C27        CAPC1608X08N_(0603)   4672.292mil   1358.794mil   4672.292mil   1358.794mil   4672.292mil   1327.298mil  T         90.00 GQM1885C1H101JB01D
C26        CAPC1608X08N_(0603)   4614.797mil   1358.794mil   4614.797mil   1358.794mil   4614.797mil   1327.298mil  T         90.00 GRM188R71C103KA01D
C25        CAPC1608X08N_(0603)   4349.921mil   1536.197mil   4349.921mil   1536.197mil   4349.921mil   1567.693mil  T        270.00 GCM188R71H473KA55D
C24        CAPC1608X08N_(0603)   4672.292mil   1480.794mil   4672.292mil   1480.794mil   4672.292mil   1449.298mil  T         90.00 GQM1885C1H101JB01D
C23        CAPC1608X08N_(0603)       4405mil   1535.992mil       4405mil   1535.992mil       4405mil   1567.488mil  T        270.00 GCM188R71H473KA55D
C22        CAPC1608X08N_(0603)   4520.136mil   1536.197mil   4520.136mil   1536.197mil   4520.136mil   1567.693mil  T        270.00 GCM188R71H473KA55D
C21        CAPC1608X08N_(0603)       5040mil       1560mil       5040mil       1560mil       5040mil   1528.504mil  T         90.00 GRM1885C2A150JA01D
C20        CAPC1608X08N_(0603)   4767.369mil   1535.393mil   4767.369mil   1535.393mil   4798.866mil   1535.393mil  T        180.00 GCM188R71H473KA55D
C19        CAPC1608X08N_(0603)   4673.819mil   1602.597mil   4673.819mil   1602.597mil   4673.819mil   1634.093mil  T        270.00 GQM1885C1H820JB01D
C18        CAPC1608X08N_(0603)   4858.075mil   1620.499mil   4858.075mil   1620.499mil   4858.075mil   1589.003mil  T         90.00 GCM188R71H473KA55D
C17        CAPC1608X08N_(0603)       5130mil   1531.401mil       5130mil   1531.401mil   5098.504mil   1531.401mil  T        360.00 GQM1885C2A1R2BB01D
C16        CAPC1608X08N_(0603)   4229.134mil   1735.354mil   4229.134mil   1735.354mil   4197.638mil   1735.354mil  T        360.00 GRM188R71E224KA88D
C15        CAPC1608X08N_(0603)   4763.921mil   1753.197mil   4763.921mil   1753.197mil   4732.425mil   1753.197mil  T        360.00 GCM188R71H473KA55D
C14        CAPC1608X08N_(0603)   4229.134mil   1790.354mil   4229.134mil   1790.354mil   4197.638mil   1790.354mil  T        360.00 GCM188R71H473KA55D
C13        CAPC1608X08N_(0603)   4229.201mil       1920mil   4229.201mil       1920mil   4197.705mil       1920mil  T        360.00 GCM188R71H473KA55D
C12        CAPC1608X08N_(0603)   4771.243mil   2017.771mil   4771.243mil   2017.771mil   4802.739mil   2017.771mil  T        180.00 GRM1885C1H152JA01D
C11        CAPC1608X08N_(0603)    4915.85mil   2051.197mil    4915.85mil   2051.197mil    4915.85mil   2019.701mil  T         90.00 GRM188R71C103KA01D
C10        CAPC1608X08N_(0603)    4860.85mil   2051.197mil    4860.85mil   2051.197mil    4860.85mil   2082.693mil  T        270.00 GCM188R71H473KA55D
C9         CAPC1608X08N_(0603)   4763.921mil   1867.197mil   4763.921mil   1867.197mil   4732.425mil   1867.197mil  T        360.00 GCM188R71H473KA55D
C8         CAPC1608X08N_(0603)   4682.739mil   2051.197mil   4682.739mil   2051.197mil   4682.739mil   2082.693mil  T        270.00 GCM188R71H473KA55D
C7         CAPC1608X08N_(0603)    4418.33mil   2051.197mil    4418.33mil   2051.197mil    4418.33mil   2019.701mil  T         90.00 GCM188R71H473KA55D
C6         CAPC1608X08N_(0603)   4627.739mil   2051.197mil   4627.739mil   2051.197mil   4627.739mil   2082.693mil  T        270.00 GCM188R71H473KA55D
C5         CAPC1608X08N_(0603)   4572.739mil   2051.197mil   4572.739mil   2051.197mil   4572.739mil   2019.701mil  T         90.00 GCM188R71H473KA55D
C4         CAPC1608X08N_(0603)   4473.251mil   2051.197mil   4473.251mil   2051.197mil   4473.251mil   2019.701mil  T         90.00 GCM188R71H473KA55D
B1         2450BM15B0002     5083.002mil    379.502mil   5083.002mil    379.502mil   5108.592mil    414.935mil  T        180.00 2450BM15B0002E 
A3         SMA_EDGE_MNT          5405mil   1531.496mil       5405mil   1531.496mil       5405mil   1531.496mil  T        270.00 CONSMA003.062  
A2         SMA_EDGE_MNT      5405.656mil        655mil   5405.656mil        655mil   5405.656mil        655mil  T        270.00 CONSMA003.062  
A1         U.FL-R-SMT-1          3535mil    439.528mil       3535mil        410mil       3535mil    469.055mil  T        180.00 U.FL-R-SMT(01) 
P9         HEADER23X2        1893.832mil     143.81mil   1893.832mil     143.81mil    793.832mil      93.81mil  T          0.00 PREC023DAAN-RC 
P8         HEADER23X2        1893.832mil    2043.81mil   1893.832mil    2043.81mil    793.832mil    1993.81mil  T          0.00 PREC023DAAN-RC 
C52        CAPC1608X08N_(0603)   3403.386mil    803.976mil   3403.386mil    803.976mil    3371.89mil    803.976mil  T        360.00 GRM188R71C103KA01D
FL1        NFM21C                4660mil   1050.988mil       4660mil   1050.988mil   4699.862mil   1050.988mil  T        180.00 NFM21CC223R1H3D
R47        RESC1608X06N_(0603)       1505mil        805mil       1505mil        805mil       1505mil    836.496mil  T        270.00 MCR03ERTJ473   
R48        RESC1608X06N_(0603)   1567.992mil    805.197mil   1567.992mil    805.197mil   1567.992mil    773.701mil  T         90.00 MCR03ERTJ104   
R64        RESC1608X06N_(0603)   4137.705mil   2082.373mil   4137.705mil   2082.373mil   4106.209mil   2082.373mil  T        360.00 R_TBD          
R63        RESC1608X06N_(0603)   4137.705mil   2022.373mil   4137.705mil   2022.373mil   4169.201mil   2022.373mil  T        180.00 R_TBD          
C145       CAPC1608X08N_(0603)       4265mil       2085mil       4265mil       2085mil   4296.496mil       2085mil  T        180.00 C_TBD          
C87        CAPC1608X08N_(0603)   2685.446mil    530.815mil   2685.446mil    530.815mil   2685.446mil    499.319mil  T         90.00 GRM188R71C103KA01D
RJ1        RJ                 2733.76mil     515.65mil       2750mil    498.425mil       2750mil    561.417mil  T        270.00 R_J            
X2         2.5X2.0X0.7MMXTAL   2716.728mil    642.756mil       2715mil    662.047mil   2743.544mil     625.63mil  T         90.00 KC2520B32K7680CM2E00
C81        CAPC1608X08N_(0603)       1635mil        485mil       1635mil        485mil       1635mil    453.504mil  T         90.00 GRM188R71C104KA01D
FB14       RESC1608X06N_(0603)       1695mil        550mil       1695mil        550mil       1695mil    581.496mil  T        270.00 MMZ1608R300A   
R49        RESC1608X06N_(0603)   1973.832mil    300.843mil   1973.832mil    300.843mil   2005.328mil    300.843mil  T        180.00 MCR03ERTJ104   

